EESchema Schematic File Version 4
LIBS:gbtx-testboard-cache
EELAYER 30 0
EELAYER END
$Descr A4 11693 8268
encoding utf-8
Sheet 2 9
Title ""
Date ""
Rev ""
Comp ""
Comment1 ""
Comment2 ""
Comment3 ""
Comment4 ""
$EndDescr
$Comp
L gbtx:GBTX U?
U 3 1 5D730C8D
P 8500 3000
F 0 "U?" H 8500 4215 50  0000 C CNN
F 1 "GBTX" H 8500 4124 50  0000 C CNN
F 2 "" H 8500 3400 50  0001 C CNN
F 3 "" H 8500 3400 50  0001 C CNN
	3    8500 3000
	1    0    0    -1  
$EndComp
$Comp
L gbtx:GBTX U?
U 4 1 5D7385F1
P 3550 2400
F 0 "U?" H 3550 3615 50  0000 C CNN
F 1 "GBTX" H 3550 3524 50  0000 C CNN
F 2 "" H 3550 2800 50  0001 C CNN
F 3 "" H 3550 2800 50  0001 C CNN
	4    3550 2400
	1    0    0    -1  
$EndComp
NoConn ~ 4900 1600
NoConn ~ 4900 1700
NoConn ~ 4900 1900
NoConn ~ 4900 2000
NoConn ~ 4900 2200
NoConn ~ 4900 2300
NoConn ~ 4900 2500
NoConn ~ 4900 2600
NoConn ~ 4900 2800
NoConn ~ 4900 2900
NoConn ~ 4900 3100
NoConn ~ 4900 3200
NoConn ~ 4900 3400
NoConn ~ 4900 3500
NoConn ~ 6100 1600
NoConn ~ 6100 1700
NoConn ~ 6100 1900
NoConn ~ 6100 2000
NoConn ~ 6100 2200
NoConn ~ 6100 2300
NoConn ~ 6100 2500
NoConn ~ 6100 2600
NoConn ~ 6100 2800
NoConn ~ 6100 2900
NoConn ~ 6100 3100
NoConn ~ 6100 3200
NoConn ~ 6100 3400
NoConn ~ 6100 3500
NoConn ~ 6100 3700
NoConn ~ 6100 3800
NoConn ~ 6100 4000
NoConn ~ 6100 4100
NoConn ~ 6100 4300
NoConn ~ 6100 4400
NoConn ~ 6100 4600
NoConn ~ 6100 4700
NoConn ~ 6100 4900
NoConn ~ 6100 5000
NoConn ~ 4900 5000
NoConn ~ 4900 4900
NoConn ~ 4900 4700
NoConn ~ 4900 4600
NoConn ~ 4900 4400
NoConn ~ 4900 4300
NoConn ~ 4900 4100
NoConn ~ 4900 4000
NoConn ~ 4900 3800
NoConn ~ 4900 3700
NoConn ~ 4900 5200
NoConn ~ 4900 5300
NoConn ~ 4900 5500
NoConn ~ 4900 5600
NoConn ~ 4900 5800
NoConn ~ 4900 5900
NoConn ~ 4900 6100
NoConn ~ 4900 6200
NoConn ~ 4900 6400
NoConn ~ 4900 6500
NoConn ~ 4900 6700
NoConn ~ 4900 6800
NoConn ~ 4900 7000
NoConn ~ 4900 7100
NoConn ~ 4900 7300
NoConn ~ 4900 7400
NoConn ~ 6100 7400
NoConn ~ 6100 7300
NoConn ~ 6100 7100
NoConn ~ 6100 7000
NoConn ~ 6100 6800
NoConn ~ 6100 6700
NoConn ~ 6100 6500
NoConn ~ 6100 6400
NoConn ~ 6100 6200
NoConn ~ 6100 6100
NoConn ~ 6100 5900
NoConn ~ 6100 5800
NoConn ~ 6100 5600
NoConn ~ 6100 5500
NoConn ~ 6100 5300
NoConn ~ 6100 5200
$Comp
L gbtx:GBTX U?
U 5 1 5D755FCC
P 5500 2400
F 0 "U?" H 5500 3615 50  0000 C CNN
F 1 "GBTX" H 5500 3524 50  0000 C CNN
F 2 "" H 5500 2800 50  0001 C CNN
F 3 "" H 5500 2800 50  0001 C CNN
	5    5500 2400
	1    0    0    -1  
$EndComp
NoConn ~ 2950 1600
NoConn ~ 2950 1700
NoConn ~ 2950 1900
NoConn ~ 2950 2000
NoConn ~ 2950 2200
NoConn ~ 2950 2300
NoConn ~ 4150 2300
NoConn ~ 4150 2200
NoConn ~ 4150 2000
NoConn ~ 4150 1900
NoConn ~ 4150 1700
NoConn ~ 4150 1600
NoConn ~ 4150 2500
NoConn ~ 4150 2600
NoConn ~ 2950 2500
NoConn ~ 2950 2600
NoConn ~ 2950 2800
NoConn ~ 2950 2900
NoConn ~ 2950 3100
NoConn ~ 2950 3200
NoConn ~ 4150 2800
NoConn ~ 4150 2900
NoConn ~ 4150 3100
NoConn ~ 4150 3200
NoConn ~ 4150 3400
NoConn ~ 4150 3500
NoConn ~ 4150 3700
NoConn ~ 4150 3800
NoConn ~ 2950 3800
NoConn ~ 2950 3700
NoConn ~ 2950 3500
NoConn ~ 2950 3400
NoConn ~ 2950 4000
NoConn ~ 2950 4100
NoConn ~ 2950 4300
NoConn ~ 2950 4400
NoConn ~ 2950 4600
NoConn ~ 2950 4700
NoConn ~ 2950 4900
NoConn ~ 2950 5000
NoConn ~ 2950 5200
NoConn ~ 2950 5300
NoConn ~ 2950 5500
NoConn ~ 2950 5600
NoConn ~ 2950 5800
NoConn ~ 2950 5900
NoConn ~ 2950 6100
NoConn ~ 2950 6200
NoConn ~ 2950 6400
NoConn ~ 2950 6500
NoConn ~ 4150 6500
NoConn ~ 4150 6400
NoConn ~ 4150 6200
NoConn ~ 4150 6100
NoConn ~ 4150 5900
NoConn ~ 4150 5800
NoConn ~ 4150 5600
NoConn ~ 4150 5500
NoConn ~ 4150 5300
NoConn ~ 4150 5200
NoConn ~ 4150 5000
NoConn ~ 4150 4900
NoConn ~ 4150 4700
NoConn ~ 4150 4600
NoConn ~ 4150 4400
NoConn ~ 4150 4300
NoConn ~ 4150 4100
NoConn ~ 4150 4000
NoConn ~ 2950 6700
NoConn ~ 2950 6800
NoConn ~ 2950 7000
NoConn ~ 2950 7100
NoConn ~ 2950 7300
NoConn ~ 2950 7400
NoConn ~ 4150 7400
NoConn ~ 4150 7300
NoConn ~ 4150 7100
NoConn ~ 4150 7000
NoConn ~ 4150 6800
NoConn ~ 4150 6700
Text Notes 850  850  0    129  ~ 0
GBTX Clock
NoConn ~ 7750 2200
NoConn ~ 7750 2300
NoConn ~ 7750 2500
NoConn ~ 7750 2600
NoConn ~ 7750 2800
NoConn ~ 7750 2900
NoConn ~ 7750 3100
NoConn ~ 7750 3200
NoConn ~ 7750 3400
NoConn ~ 7750 3500
NoConn ~ 7750 3700
NoConn ~ 7750 3800
NoConn ~ 7750 4000
NoConn ~ 7750 4100
NoConn ~ 7750 4300
NoConn ~ 7750 4400
NoConn ~ 9250 3100
NoConn ~ 9250 3200
NoConn ~ 9250 3450
NoConn ~ 9250 3700
NoConn ~ 9250 3800
NoConn ~ 9250 4000
NoConn ~ 9250 4100
NoConn ~ 9250 4300
NoConn ~ 9250 4400
$EndSCHEMATC
