EESchema Schematic File Version 4
LIBS:gbtx-testboard-cache
EELAYER 30 0
EELAYER END
$Descr A4 11693 8268
encoding utf-8
Sheet 1 9
Title ""
Date ""
Rev ""
Comp ""
Comment1 ""
Comment2 ""
Comment3 ""
Comment4 ""
$EndDescr
$Sheet
S 3000 2050 950  850 
U 5D723F74
F0 "GBTX Clock" 50
F1 "GBTX_Clock.sch" 50
$EndSheet
$Sheet
S 9950 650  950  800 
U 5D7A0455
F0 "SFP+" 50
F1 "SFP+.sch" 50
F2 "GND" I L 9950 1400 50 
F3 "3V3" I L 9950 750 50 
F4 "SFP+_RD_P" I L 9950 900 50 
F5 "SFP+_RD_N" I L 9950 1000 50 
F6 "SFP+_TD_N" I L 9950 1250 50 
F7 "SFP+_TD_P" I L 9950 1150 50 
$EndSheet
$Sheet
S 1100 4650 1800 2800
U 5D834CDF
F0 "iCE40" 50
F1 "iCE40.sch" 50
F2 "ICE40_TMS_REM_P" I L 1100 5350 50 
F3 "ICE40_TMS_REM_N" I L 1100 5450 50 
F4 "ICE40_TDI_REM_P" I L 1100 5600 50 
F5 "ICE40_TDI_REM_N" I L 1100 5700 50 
F6 "ICE40_RST_REM_P" I L 1100 5850 50 
F7 "ICE40_RST_REM_N" I L 1100 5950 50 
F8 "ICE40_TCK_REM_P" I L 1100 6100 50 
F9 "ICE40_TCK_REM_N" I L 1100 6200 50 
F10 "ICE40_TMS_LOC_P" I L 1100 6450 50 
F11 "ICE40_TMS_LOC_N" I L 1100 6550 50 
F12 "ICE40_TDI_LOC_P" I L 1100 6700 50 
F13 "ICE40_TDI_LOC_N" I L 1100 6800 50 
F14 "ICE40_RST_LOC_P" I L 1100 6950 50 
F15 "ICE40_RST_LOC_N" I L 1100 7050 50 
F16 "ICE40_TCK_LOC_P" I L 1100 7200 50 
F17 "ICE40_TCK_LOC_N" I L 1100 7300 50 
F18 "ICE40_TMS_REM" O R 2900 5050 50 
F19 "ICE40_TDI_REM" O R 2900 5150 50 
F20 "ICE40_RST_REM" O R 2900 5250 50 
F21 "ICE40_TCK_REM" O R 2900 5350 50 
F22 "ICE40_TMS_LOC" O R 2900 5650 50 
F23 "ICE40_TDI_LOC" O R 2900 5750 50 
F24 "ICE40_RST_LOC" O R 2900 5850 50 
F25 "ICE40_TCK_LOC" O R 2900 5950 50 
F26 "VCC1V2" I L 1100 4750 50 
F27 "VCC1V8" I L 1100 4900 50 
F28 "VCC2V5" I L 1100 5050 50 
F29 "GBTX_KEY_A_P" I R 2900 6300 50 
F30 "GBTX_KEY_A_N" I R 2900 6400 50 
F31 "GBTX_KEY_B_P" I R 2900 6650 50 
F32 "GBTX_KEY_B_N" I R 2900 6750 50 
F33 "GBTX_RXRDY" I R 2900 6950 50 
F34 "GBTX_RXDATAVALID" I R 2900 7050 50 
$EndSheet
$Comp
L gbtx:87832-5623 J?
U 1 1 5DA240D6
P 10200 2200
F 0 "J?" H 10225 2415 50  0000 C CNN
F 1 "87832-5623" H 10225 2324 50  0000 C CNN
F 2 "" H 10200 2200 50  0001 C CNN
F 3 "" H 10200 2200 50  0001 C CNN
	1    10200 2200
	1    0    0    -1  
$EndComp
Text Notes 8050 1850 0    50   ~ 0
JTAG Local
Text Notes 9950 1850 0    50   ~ 0
JTAG Remote
$Comp
L gbtx:87832-5623 J?
U 1 1 5DA23B9C
P 8200 2200
F 0 "J?" H 8225 2415 50  0000 C CNN
F 1 "87832-5623" H 8225 2324 50  0000 C CNN
F 2 "" H 8200 2200 50  0001 C CNN
F 3 "" H 8200 2200 50  0001 C CNN
	1    8200 2200
	1    0    0    -1  
$EndComp
$Sheet
S 1150 650  1650 2250
U 5D723F1D
F0 "GBTX Data" 50
F1 "GBTX_Data.sch" 50
F2 "GBTX_TMS_REM_P" B L 1150 800 50 
F3 "GBTX_TMS_REM_N" B L 1150 900 50 
F4 "GBTX_TDI_REM_P" B L 1150 1050 50 
F5 "GBTX_TDI_REM_N" B L 1150 1150 50 
F6 "GBTX_RST_REM_P" B L 1150 1300 50 
F7 "GBTX_RST_REM_N" B L 1150 1400 50 
F8 "GBTX_TCK_REM_P" B L 1150 1550 50 
F9 "GBTX_TCK_REM_N" B L 1150 1650 50 
F10 "GBTX_TMS_LOC_P" B L 1150 1900 50 
F11 "GBTX_TMS_LOC_N" B L 1150 2000 50 
F12 "GBTX_TDI_LOC_P" B L 1150 2150 50 
F13 "GBTX_TDI_LOC_N" B L 1150 2250 50 
F14 "GBTX_RST_LOC_P" B L 1150 2400 50 
F15 "GBTX_RST_LOC_N" B L 1150 2500 50 
F16 "GBTX_TCK_LOC_P" B L 1150 2650 50 
F17 "GBTX_TCK_LOC_N" B L 1150 2750 50 
F18 "GBTX_KEY_A_N" B R 2800 1000 50 
F19 "GBTX_KEY_A_P" B R 2800 900 50 
F20 "GBTX_KEY_B_N" B R 2800 1350 50 
F21 "GBTX_KEY_B_P" B R 2800 1250 50 
$EndSheet
$Sheet
S 7450 700  1000 850 
U 5D9EE2BE
F0 "Power" 50
F1 "Power.sch" 50
F2 "9V" I L 7450 800 50 
F3 "3V3" O R 8450 800 50 
F4 "2V5" O R 8450 950 50 
F5 "1V8" O R 8450 1100 50 
F6 "1V5" O R 8450 1250 50 
F7 "1V2" O R 8450 1400 50 
F8 "GND" I L 7450 1400 50 
$EndSheet
Text Label 600  800  0    50   ~ 0
TMS_REM_P
Text Label 600  900  0    50   ~ 0
TMS_REM_N
Text Label 600  1050 0    50   ~ 0
TDI_REM_P
Text Label 600  1150 0    50   ~ 0
TDI_REM_N
Text Label 600  1300 0    50   ~ 0
RST_REM_P
Text Label 600  1400 0    50   ~ 0
RST_REM_N
Text Label 600  1550 0    50   ~ 0
TCK_REM_P
Text Label 600  1650 0    50   ~ 0
TCK_REM_N
Text Label 600  1900 0    50   ~ 0
TMS_LOC_P
Text Label 600  2000 0    50   ~ 0
TMS_LOC_N
Text Label 600  2150 0    50   ~ 0
TDI_LOC_P
Text Label 600  2250 0    50   ~ 0
TDI_LOC_N
Text Label 600  2400 0    50   ~ 0
RST_LOC_P
Text Label 600  2500 0    50   ~ 0
RST_LOC_N
Text Label 600  2650 0    50   ~ 0
TCK_LOC_P
Text Label 600  2750 0    50   ~ 0
TCK_LOC_N
Wire Wire Line
	600  2750 1150 2750
Wire Wire Line
	600  2650 1150 2650
Wire Wire Line
	600  2500 1150 2500
Wire Wire Line
	600  2400 1150 2400
Wire Wire Line
	600  2250 1150 2250
Wire Wire Line
	600  2150 1150 2150
Wire Wire Line
	600  2000 1150 2000
Wire Wire Line
	600  1900 1150 1900
Wire Wire Line
	600  1650 1150 1650
Wire Wire Line
	600  1550 1150 1550
Wire Wire Line
	600  1400 1150 1400
Wire Wire Line
	600  1300 1150 1300
Wire Wire Line
	600  1150 1150 1150
Wire Wire Line
	600  1050 1150 1050
Wire Wire Line
	600  900  1150 900 
Wire Wire Line
	600  800  1150 800 
Text Label 3400 900  2    50   ~ 0
GBTX_KEY_A_P
Text Label 3400 1000 2    50   ~ 0
GBTX_KEY_A_N
NoConn ~ 7900 2350
NoConn ~ 7900 2450
NoConn ~ 9900 2350
NoConn ~ 9900 2450
Text Label 7450 2550 0    50   ~ 0
TDI_LOC
Text Label 7450 2650 0    50   ~ 0
TDO_LOC
Text Label 7450 2750 0    50   ~ 0
TCK_LOC
Text Label 7450 2850 0    50   ~ 0
TMS_LOC
Text Label 9450 2550 0    50   ~ 0
TDI_REM
Text Label 9450 2650 0    50   ~ 0
TDO_REM
Text Label 9450 2750 0    50   ~ 0
TCK_REM
Text Label 9450 2850 0    50   ~ 0
TMS_REM
Wire Wire Line
	9450 2550 9900 2550
Wire Wire Line
	9450 2650 9900 2650
Wire Wire Line
	9450 2750 9900 2750
Wire Wire Line
	9450 2850 9900 2850
Wire Wire Line
	7450 2550 7900 2550
Wire Wire Line
	7900 2650 7450 2650
Wire Wire Line
	7450 2750 7900 2750
Wire Wire Line
	7450 2850 7900 2850
$Comp
L power:GND #PWR?
U 1 1 5E2BEA47
P 10700 3100
F 0 "#PWR?" H 10700 2850 50  0001 C CNN
F 1 "GND" H 10705 2927 50  0000 C CNN
F 2 "" H 10700 3100 50  0001 C CNN
F 3 "" H 10700 3100 50  0001 C CNN
	1    10700 3100
	1    0    0    -1  
$EndComp
Wire Wire Line
	10550 2350 10700 2350
Wire Wire Line
	10700 2350 10700 2450
Wire Wire Line
	10550 2450 10700 2450
Connection ~ 10700 2450
Wire Wire Line
	10700 2450 10700 2550
Wire Wire Line
	10550 2550 10700 2550
Connection ~ 10700 2550
Wire Wire Line
	10700 2550 10700 2650
Wire Wire Line
	10550 2650 10700 2650
Connection ~ 10700 2650
Wire Wire Line
	10700 2650 10700 2750
Wire Wire Line
	10550 2750 10700 2750
Connection ~ 10700 2750
Wire Wire Line
	10700 2750 10700 2850
Wire Wire Line
	10550 2850 10700 2850
Connection ~ 10700 2850
Wire Wire Line
	10700 2850 10700 2950
Wire Wire Line
	10550 2950 10700 2950
Connection ~ 10700 2950
Wire Wire Line
	10700 2950 10700 3100
$Comp
L power:GND #PWR?
U 1 1 5E2C353B
P 8700 3100
F 0 "#PWR?" H 8700 2850 50  0001 C CNN
F 1 "GND" H 8705 2927 50  0000 C CNN
F 2 "" H 8700 3100 50  0001 C CNN
F 3 "" H 8700 3100 50  0001 C CNN
	1    8700 3100
	1    0    0    -1  
$EndComp
Wire Wire Line
	8550 2350 8700 2350
Wire Wire Line
	8700 2350 8700 2450
Wire Wire Line
	8550 2450 8700 2450
Connection ~ 8700 2450
Wire Wire Line
	8700 2450 8700 2550
Wire Wire Line
	8550 2550 8700 2550
Connection ~ 8700 2550
Wire Wire Line
	8700 2550 8700 2650
Wire Wire Line
	8550 2650 8700 2650
Connection ~ 8700 2650
Wire Wire Line
	8700 2650 8700 2750
Wire Wire Line
	8550 2750 8700 2750
Connection ~ 8700 2750
Wire Wire Line
	8700 2750 8700 2850
Wire Wire Line
	8550 2850 8700 2850
Connection ~ 8700 2850
Wire Wire Line
	8700 2850 8700 2950
Wire Wire Line
	8550 2950 8700 2950
Connection ~ 8700 2950
Wire Wire Line
	8700 2950 8700 3100
Text Label 3350 5650 2    50   ~ 0
TDI_LOC
Text Label 3350 5750 2    50   ~ 0
TDO_LOC
Text Label 3350 5850 2    50   ~ 0
TCK_LOC
Text Label 3350 5950 2    50   ~ 0
TMS_LOC
Wire Wire Line
	3350 5650 2900 5650
Wire Wire Line
	2900 5750 3350 5750
Wire Wire Line
	3350 5850 2900 5850
Wire Wire Line
	3350 5950 2900 5950
Text Label 3350 5050 2    50   ~ 0
TDI_REM
Text Label 3350 5150 2    50   ~ 0
TDO_REM
Text Label 3350 5250 2    50   ~ 0
TCK_REM
Text Label 3350 5350 2    50   ~ 0
TMS_REM
Wire Wire Line
	3350 5050 2900 5050
Wire Wire Line
	3350 5150 2900 5150
Wire Wire Line
	3350 5250 2900 5250
Wire Wire Line
	3350 5350 2900 5350
Text Label 550  5350 0    50   ~ 0
TMS_REM_P
Text Label 550  5450 0    50   ~ 0
TMS_REM_N
Text Label 550  5600 0    50   ~ 0
TDI_REM_P
Text Label 550  5700 0    50   ~ 0
TDI_REM_N
Text Label 550  5850 0    50   ~ 0
RST_REM_P
Text Label 550  5950 0    50   ~ 0
RST_REM_N
Text Label 550  6100 0    50   ~ 0
TCK_REM_P
Text Label 550  6200 0    50   ~ 0
TCK_REM_N
Text Label 550  6450 0    50   ~ 0
TMS_LOC_P
Text Label 550  6550 0    50   ~ 0
TMS_LOC_N
Text Label 550  6700 0    50   ~ 0
TDI_LOC_P
Text Label 550  6800 0    50   ~ 0
TDI_LOC_N
Text Label 550  6950 0    50   ~ 0
RST_LOC_P
Text Label 550  7050 0    50   ~ 0
RST_LOC_N
Text Label 550  7200 0    50   ~ 0
TCK_LOC_P
Text Label 550  7300 0    50   ~ 0
TCK_LOC_N
Wire Wire Line
	550  7300 1100 7300
Wire Wire Line
	550  7200 1100 7200
Wire Wire Line
	550  7050 1100 7050
Wire Wire Line
	550  6950 1100 6950
Wire Wire Line
	550  6800 1100 6800
Wire Wire Line
	550  6700 1100 6700
Wire Wire Line
	550  6550 1100 6550
Wire Wire Line
	550  6450 1100 6450
Wire Wire Line
	550  6200 1100 6200
Wire Wire Line
	550  6100 1100 6100
Wire Wire Line
	550  5950 1100 5950
Wire Wire Line
	550  5850 1100 5850
Wire Wire Line
	550  5700 1100 5700
Wire Wire Line
	550  5600 1100 5600
Wire Wire Line
	550  5450 1100 5450
Wire Wire Line
	550  5350 1100 5350
Text Label 3400 1250 2    50   ~ 0
GBTX_KEY_A_P
Text Label 3400 1350 2    50   ~ 0
GBTX_KEY_A_N
Wire Wire Line
	2800 1250 3400 1250
Wire Wire Line
	2800 1350 3400 1350
Wire Wire Line
	2800 1000 3400 1000
Wire Wire Line
	2800 900  3400 900 
Text Label 3500 6300 2    50   ~ 0
GBTX_KEY_A_P
Text Label 3500 6400 2    50   ~ 0
GBTX_KEY_A_N
Text Label 3500 6650 2    50   ~ 0
GBTX_KEY_B_P
Text Label 3500 6750 2    50   ~ 0
GBTX_KEY_B_N
Wire Wire Line
	2900 6650 3500 6650
Wire Wire Line
	2900 6750 3500 6750
Wire Wire Line
	2900 6400 3500 6400
Wire Wire Line
	2900 6300 3500 6300
$Sheet
S 3750 7150 650  500 
U 5DAD3E09
F0 "iCE40 SPI" 50
F1 "iCE40_spi.sch" 50
F2 "3V3" I L 3750 7350 50 
F3 "GND" I L 3750 7500 50 
$EndSheet
Text Label 8800 1400 2    50   ~ 0
VCC1V2
Wire Wire Line
	8800 1400 8450 1400
Text Label 8800 1250 2    50   ~ 0
VCC1V5
Wire Wire Line
	8800 1250 8450 1250
Text Label 8800 1100 2    50   ~ 0
VCC1V8
Text Label 8800 950  2    50   ~ 0
VCC2V5
Text Label 8800 800  2    50   ~ 0
VCC3V3
Wire Wire Line
	8800 800  8450 800 
Wire Wire Line
	8800 950  8450 950 
Wire Wire Line
	8800 1100 8450 1100
Text Label 700  4750 0    50   ~ 0
VCC1V2
Wire Wire Line
	700  4750 1100 4750
Text Label 750  3200 0    50   ~ 0
VCC1V5
Text Label 3300 7350 0    50   ~ 0
VCC3V3
Wire Wire Line
	3300 7350 3750 7350
$Comp
L power:GND #PWR?
U 1 1 5DBA0524
P 3450 7550
F 0 "#PWR?" H 3450 7300 50  0001 C CNN
F 1 "GND" H 3455 7377 50  0000 C CNN
F 2 "" H 3450 7550 50  0001 C CNN
F 3 "" H 3450 7550 50  0001 C CNN
	1    3450 7550
	1    0    0    -1  
$EndComp
Wire Wire Line
	3750 7500 3450 7500
Wire Wire Line
	750  3200 1150 3200
Text Label 7450 2950 0    50   ~ 0
VCC1V8
Wire Wire Line
	7450 2950 7900 2950
Text Label 9450 2950 0    50   ~ 0
VCC1V8
Wire Wire Line
	9450 2950 9900 2950
Text Label 700  4900 0    50   ~ 0
VCC1V8
Wire Wire Line
	700  4900 1100 4900
Text Label 700  5050 0    50   ~ 0
VCC2V5
Wire Wire Line
	700  5050 1100 5050
$Comp
L power:+9V #PWR?
U 1 1 5DDD5FBA
P 7200 750
F 0 "#PWR?" H 7200 600 50  0001 C CNN
F 1 "+9V" H 7215 923 50  0000 C CNN
F 2 "" H 7200 750 50  0001 C CNN
F 3 "" H 7200 750 50  0001 C CNN
	1    7200 750 
	1    0    0    -1  
$EndComp
Wire Wire Line
	7200 750  7200 800 
Wire Wire Line
	7200 800  7450 800 
Text Label 9400 900  0    50   ~ 0
SFP+_RD_P
Wire Wire Line
	9400 900  9950 900 
Text Label 9400 1000 0    50   ~ 0
SFP+_RD_N
Wire Wire Line
	9400 1000 9950 1000
Text Label 600  3650 0    50   ~ 0
SFP+_RD_P
Wire Wire Line
	600  3650 1150 3650
Text Label 600  3750 0    50   ~ 0
SFP+_RD_N
Wire Wire Line
	600  3750 1150 3750
$Sheet
S 1150 3150 1500 950 
U 5D723FC2
F0 "GBT Power Config" 50
F1 "GBTX_Power_Config.sch" 50
F2 "VCC1V5" I L 1150 3200 50 
F3 "GND" I L 1150 4050 50 
F4 "VCC3V3" I L 1150 3300 50 
F5 "GBTX_RXRDY" O R 2650 3350 50 
F6 "GBTX_RXDATAVALID" O R 2650 3450 50 
F7 "SFP+_1_RD_P" I L 1150 3650 50 
F8 "SFP+_1_RD_N" I L 1150 3750 50 
F9 "VCC1V5_PU_U3" I L 1150 3400 50 
F10 "GND_PD_U3" I L 1150 3950 50 
$EndSheet
Text Label 750  3300 0    50   ~ 0
VCC3V3
Wire Wire Line
	750  3300 1150 3300
Text Label 9400 750  0    50   ~ 0
VCC3V3
Wire Wire Line
	9400 750  9950 750 
$Comp
L power:GND #PWR?
U 1 1 5DEDDD5A
P 7200 1550
F 0 "#PWR?" H 7200 1300 50  0001 C CNN
F 1 "GND" H 7205 1377 50  0000 C CNN
F 2 "" H 7200 1550 50  0001 C CNN
F 3 "" H 7200 1550 50  0001 C CNN
	1    7200 1550
	1    0    0    -1  
$EndComp
Wire Wire Line
	7200 1550 7200 1400
Wire Wire Line
	7200 1400 7450 1400
Text Label 3450 3350 2    50   ~ 0
GBTX_RXRDY
Text Label 3450 3450 2    50   ~ 0
GBTX_RXDATAVALID
Wire Wire Line
	2650 3450 3450 3450
Wire Wire Line
	2650 3350 3450 3350
Text Label 3700 6950 2    50   ~ 0
GBTX_RXRDY
Text Label 3700 7050 2    50   ~ 0
GBTX_RXDATAVALID
Wire Wire Line
	2900 7050 3700 7050
Wire Wire Line
	2900 6950 3700 6950
NoConn ~ -1600 5900
Wire Wire Line
	3450 7500 3450 7550
$EndSCHEMATC
