EESchema Schematic File Version 4
LIBS:gbtx-testboard-cache
EELAYER 30 0
EELAYER END
$Descr A4 11693 8268
encoding utf-8
Sheet 5 9
Title ""
Date ""
Rev ""
Comp ""
Comment1 ""
Comment2 ""
Comment3 ""
Comment4 ""
$EndDescr
$Comp
L gbtx:GBTX U?
U 1 1 5D724172
P 2750 2950
F 0 "U?" H 2750 4165 50  0000 C CNN
F 1 "GBTX" H 2750 4074 50  0000 C CNN
F 2 "" H 2750 3350 50  0001 C CNN
F 3 "" H 2750 3350 50  0001 C CNN
	1    2750 2950
	1    0    0    -1  
$EndComp
$Comp
L gbtx:GBTX U?
U 2 1 5D725FD4
P 7450 2200
F 0 "U?" H 7450 3415 50  0000 C CNN
F 1 "GBTX" H 7450 3324 50  0000 C CNN
F 2 "" H 7450 2600 50  0001 C CNN
F 3 "" H 7450 2600 50  0001 C CNN
	2    7450 2200
	1    0    0    -1  
$EndComp
NoConn ~ 6850 1400
NoConn ~ 6850 1500
NoConn ~ 6850 1700
NoConn ~ 6850 1800
NoConn ~ 6850 2000
NoConn ~ 6850 2100
NoConn ~ 6850 2300
NoConn ~ 6850 2400
NoConn ~ 6850 2600
NoConn ~ 6850 2700
NoConn ~ 6850 2900
NoConn ~ 6850 3000
NoConn ~ 6850 3200
NoConn ~ 6850 3300
NoConn ~ 6850 3500
NoConn ~ 6850 3600
NoConn ~ 6850 3800
NoConn ~ 6850 3900
NoConn ~ 6850 4100
NoConn ~ 6850 4200
NoConn ~ 6850 4400
NoConn ~ 6850 4500
NoConn ~ 6850 4700
NoConn ~ 6850 4800
NoConn ~ 8050 4800
NoConn ~ 8050 4700
NoConn ~ 8050 4500
NoConn ~ 8050 4400
NoConn ~ 8050 4200
NoConn ~ 8050 4100
NoConn ~ 8050 3900
NoConn ~ 8050 3800
NoConn ~ 8050 3600
NoConn ~ 8050 3500
NoConn ~ 8050 3300
NoConn ~ 8050 3200
NoConn ~ 8050 3000
NoConn ~ 8050 2900
NoConn ~ 8050 2700
NoConn ~ 8050 2600
NoConn ~ 8050 2400
NoConn ~ 8050 2300
NoConn ~ 8050 2100
NoConn ~ 8050 2000
NoConn ~ 8050 1800
NoConn ~ 8050 1700
NoConn ~ 8050 1500
NoConn ~ 8050 1400
Text HLabel 1950 2150 0    50   BiDi ~ 0
GBTX_TMS_REM_P
Text HLabel 1950 2250 0    50   BiDi ~ 0
GBTX_TMS_REM_N
Text HLabel 1950 2450 0    50   BiDi ~ 0
GBTX_TDI_REM_P
Text HLabel 1950 2550 0    50   BiDi ~ 0
GBTX_TDI_REM_N
Text HLabel 1950 2750 0    50   BiDi ~ 0
GBTX_RST_REM_P
Text HLabel 1950 2850 0    50   BiDi ~ 0
GBTX_RST_REM_N
Text HLabel 1950 3050 0    50   BiDi ~ 0
GBTX_TCK_REM_P
Text HLabel 1950 3150 0    50   BiDi ~ 0
GBTX_TCK_REM_N
Text HLabel 1950 3350 0    50   BiDi ~ 0
GBTX_TMS_LOC_P
Text HLabel 1950 3450 0    50   BiDi ~ 0
GBTX_TMS_LOC_N
Text HLabel 1950 3650 0    50   BiDi ~ 0
GBTX_TDI_LOC_P
Text HLabel 1950 3750 0    50   BiDi ~ 0
GBTX_TDI_LOC_N
Text HLabel 1950 3950 0    50   BiDi ~ 0
GBTX_RST_LOC_P
Text HLabel 1950 4050 0    50   BiDi ~ 0
GBTX_RST_LOC_N
Text HLabel 1950 4250 0    50   BiDi ~ 0
GBTX_TCK_LOC_P
Text HLabel 1950 4350 0    50   BiDi ~ 0
GBTX_TCK_LOC_N
Wire Wire Line
	1950 2150 2250 2150
Wire Wire Line
	1950 2250 2250 2250
Wire Wire Line
	1950 2450 2250 2450
Wire Wire Line
	1950 2550 2250 2550
Wire Wire Line
	1950 2750 2250 2750
Wire Wire Line
	1950 2850 2250 2850
Wire Wire Line
	1950 3050 2250 3050
Wire Wire Line
	1950 3150 2250 3150
Wire Wire Line
	1950 3350 2250 3350
Wire Wire Line
	1950 3450 2250 3450
Wire Wire Line
	1950 3650 2250 3650
Wire Wire Line
	1950 3750 2250 3750
Wire Wire Line
	1950 3950 2250 3950
Wire Wire Line
	1950 4050 2250 4050
Wire Wire Line
	1950 4250 2250 4250
Wire Wire Line
	1950 4350 2250 4350
NoConn ~ 3250 2750
NoConn ~ 3250 2850
NoConn ~ 3250 3050
NoConn ~ 3250 3150
NoConn ~ 3250 3350
NoConn ~ 3250 3450
NoConn ~ 3250 3650
NoConn ~ 3250 3750
NoConn ~ 3250 3950
NoConn ~ 3250 4050
NoConn ~ 3250 4250
NoConn ~ 3250 4350
Wire Wire Line
	3600 2250 3250 2250
Wire Wire Line
	3600 2150 3250 2150
Text HLabel 3600 2250 2    50   BiDi ~ 0
GBTX_KEY_A_N
Text HLabel 3600 2150 2    50   BiDi ~ 0
GBTX_KEY_A_P
Wire Wire Line
	3600 2550 3250 2550
Wire Wire Line
	3600 2450 3250 2450
Text HLabel 3600 2550 2    50   BiDi ~ 0
GBTX_KEY_B_N
Text HLabel 3600 2450 2    50   BiDi ~ 0
GBTX_KEY_B_P
Text Notes 800  800  0    129  ~ 0
GBTx Data
$EndSCHEMATC
