EESchema Schematic File Version 4
LIBS:gbtx-testboard-cache
EELAYER 30 0
EELAYER END
$Descr A4 11693 8268
encoding utf-8
Sheet 6 7
Title ""
Date ""
Rev ""
Comp ""
Comment1 ""
Comment2 ""
Comment3 ""
Comment4 ""
$EndDescr
$Comp
L gbtx:iCE40LP1K U?
U 1 1 5D9F6152
P 2150 1950
F 0 "U?" H 2075 2665 50  0000 C CNN
F 1 "iCE40LP1K" H 2075 2574 50  0000 C CNN
F 2 "" H 3300 1950 50  0001 C CNN
F 3 "" H 3300 1950 50  0001 C CNN
	1    2150 1950
	1    0    0    -1  
$EndComp
$Comp
L gbtx:iCE40LP1K U?
U 2 1 5D9F6E9B
P 5900 2200
F 0 "U?" H 5900 2915 50  0000 C CNN
F 1 "iCE40LP1K" H 5900 2824 50  0000 C CNN
F 2 "" H 7050 2200 50  0001 C CNN
F 3 "" H 7050 2200 50  0001 C CNN
	2    5900 2200
	1    0    0    -1  
$EndComp
$Comp
L gbtx:iCE40LP1K U?
U 3 1 5D9F8511
P 9550 2050
F 0 "U?" H 9678 2271 50  0000 L CNN
F 1 "iCE40LP1K" H 9678 2180 50  0000 L CNN
F 2 "" H 10700 2050 50  0001 C CNN
F 3 "" H 10700 2050 50  0001 C CNN
	3    9550 2050
	1    0    0    -1  
$EndComp
$Comp
L gbtx:iCE40LP1K U?
U 4 1 5D9F951A
P 2200 5300
F 0 "U?" H 2100 6015 50  0000 C CNN
F 1 "iCE40LP1K" H 2100 5924 50  0000 C CNN
F 2 "" H 3350 5300 50  0001 C CNN
F 3 "" H 3350 5300 50  0001 C CNN
	4    2200 5300
	1    0    0    -1  
$EndComp
$Comp
L gbtx:iCE40LP1K U?
U 5 1 5D9FAEA6
P 5150 5300
F 0 "U?" H 5100 6015 50  0000 C CNN
F 1 "iCE40LP1K" H 5100 5924 50  0000 C CNN
F 2 "" H 6300 5300 50  0001 C CNN
F 3 "" H 6300 5300 50  0001 C CNN
	5    5150 5300
	1    0    0    -1  
$EndComp
$Comp
L gbtx:iCE40LP1K U?
U 6 1 5D9FCB42
P 7350 5350
F 0 "U?" H 7375 6065 50  0000 C CNN
F 1 "iCE40LP1K" H 7375 5974 50  0000 C CNN
F 2 "" H 8500 5350 50  0001 C CNN
F 3 "" H 8500 5350 50  0001 C CNN
	6    7350 5350
	1    0    0    -1  
$EndComp
$Comp
L gbtx:iCE40LP1K U?
U 7 1 5D9FE7DA
P 10500 5250
F 0 "U?" H 10350 5965 50  0000 C CNN
F 1 "iCE40LP1K" H 10350 5874 50  0000 C CNN
F 2 "" H 11650 5250 50  0001 C CNN
F 3 "" H 11650 5250 50  0001 C CNN
	7    10500 5250
	1    0    0    -1  
$EndComp
$EndSCHEMATC
