EESchema Schematic File Version 4
LIBS:gbtx-testboard-cache
EELAYER 30 0
EELAYER END
$Descr A4 11693 8268
encoding utf-8
Sheet 4 9
Title ""
Date ""
Rev ""
Comp ""
Comment1 ""
Comment2 ""
Comment3 ""
Comment4 ""
$EndDescr
$Comp
L gbtx:iCE40LP1K U?
U 1 1 5D9F6152
P 3150 1800
F 0 "U?" H 2750 2400 50  0000 C CNN
F 1 "iCE40LP1K" H 2900 1100 50  0000 C CNN
F 2 "" H 4300 1800 50  0001 C CNN
F 3 "" H 4300 1800 50  0001 C CNN
	1    3150 1800
	1    0    0    -1  
$EndComp
$Comp
L gbtx:iCE40LP1K U?
U 4 1 5D9F951A
P 3200 4000
F 0 "U?" H 2500 4600 50  0000 C CNN
F 1 "iCE40LP1K" H 2600 2800 50  0000 C CNN
F 2 "" H 4350 4000 50  0001 C CNN
F 3 "" H 4350 4000 50  0001 C CNN
	4    3200 4000
	1    0    0    -1  
$EndComp
$Comp
L gbtx:iCE40LP1K U?
U 5 1 5D9FAEA6
P 6800 4000
F 0 "U?" H 6200 4600 50  0000 C CNN
F 1 "iCE40LP1K" H 6350 2700 50  0000 C CNN
F 2 "" H 7950 4000 50  0001 C CNN
F 3 "" H 7950 4000 50  0001 C CNN
	5    6800 4000
	1    0    0    -1  
$EndComp
$Comp
L gbtx:iCE40LP1K U?
U 6 1 5D9FCB42
P 9500 4000
F 0 "U?" H 9000 4600 50  0000 C CNN
F 1 "iCE40LP1K" H 9100 3100 50  0000 C CNN
F 2 "" H 10650 4000 50  0001 C CNN
F 3 "" H 10650 4000 50  0001 C CNN
	6    9500 4000
	1    0    0    -1  
$EndComp
$Comp
L gbtx:iCE40LP1K U?
U 7 1 5D9FE7DA
P 3250 6400
F 0 "U?" H 2500 7000 50  0000 C CNN
F 1 "iCE40LP1K" H 2650 5200 50  0000 C CNN
F 2 "" H 4400 6400 50  0001 C CNN
F 3 "" H 4400 6400 50  0001 C CNN
	7    3250 6400
	1    0    0    -1  
$EndComp
Text HLabel 2050 6250 0    50   Input ~ 0
ICE40_TMS_REM_P
Wire Wire Line
	2050 6250 2350 6250
Text HLabel 2050 6350 0    50   Input ~ 0
ICE40_TMS_REM_N
Wire Wire Line
	2050 6350 2350 6350
Text HLabel 2050 6450 0    50   Input ~ 0
ICE40_TDI_REM_P
Wire Wire Line
	2050 6450 2350 6450
Text HLabel 2050 6550 0    50   Input ~ 0
ICE40_TDI_REM_N
Wire Wire Line
	2050 6550 2350 6550
Text HLabel 2050 6650 0    50   Input ~ 0
ICE40_RST_REM_P
Text HLabel 2050 6750 0    50   Input ~ 0
ICE40_RST_REM_N
Wire Wire Line
	2050 6650 2350 6650
Wire Wire Line
	2050 6750 2350 6750
Text HLabel 2050 6850 0    50   Input ~ 0
ICE40_TCK_REM_P
Text HLabel 2050 6950 0    50   Input ~ 0
ICE40_TCK_REM_N
Wire Wire Line
	2050 6850 2350 6850
Wire Wire Line
	2050 6950 2350 6950
Text HLabel 4150 6150 2    50   Input ~ 0
ICE40_TMS_LOC_P
Wire Wire Line
	4150 6150 3850 6150
Text HLabel 4150 6250 2    50   Input ~ 0
ICE40_TMS_LOC_N
Wire Wire Line
	4150 6250 3850 6250
Text HLabel 4150 6350 2    50   Input ~ 0
ICE40_TDI_LOC_P
Wire Wire Line
	4150 6350 3850 6350
Text HLabel 4150 6450 2    50   Input ~ 0
ICE40_TDI_LOC_N
Wire Wire Line
	4150 6450 3850 6450
Text HLabel 4150 6550 2    50   Input ~ 0
ICE40_RST_LOC_P
Text HLabel 4150 6650 2    50   Input ~ 0
ICE40_RST_LOC_N
Wire Wire Line
	4150 6550 3850 6550
Wire Wire Line
	4150 6650 3850 6650
Text HLabel 4150 6750 2    50   Input ~ 0
ICE40_TCK_LOC_P
Text HLabel 4150 6850 2    50   Input ~ 0
ICE40_TCK_LOC_N
Wire Wire Line
	4150 6750 3850 6750
Wire Wire Line
	4150 6850 3850 6850
Text HLabel 2000 3850 0    50   Output ~ 0
ICE40_TMS_REM
Wire Wire Line
	2000 3850 2300 3850
Text HLabel 2000 3950 0    50   Output ~ 0
ICE40_TDI_REM
Wire Wire Line
	2000 3950 2300 3950
Text HLabel 2000 4050 0    50   Output ~ 0
ICE40_RST_REM
Wire Wire Line
	2000 4050 2300 4050
Text HLabel 2000 4150 0    50   Output ~ 0
ICE40_TCK_REM
Wire Wire Line
	2000 4150 2300 4150
Text HLabel 2000 4250 0    50   Output ~ 0
ICE40_TMS_LOC
Wire Wire Line
	2000 4250 2300 4250
Text HLabel 2000 4350 0    50   Output ~ 0
ICE40_TDI_LOC
Wire Wire Line
	2000 4350 2300 4350
Text HLabel 2000 4450 0    50   Output ~ 0
ICE40_RST_LOC
Wire Wire Line
	2000 4450 2300 4450
Wire Wire Line
	2000 4550 2300 4550
Text HLabel 2000 4550 0    50   Output ~ 0
ICE40_TCK_LOC
Text HLabel 2000 1450 0    50   Input ~ 0
VCC1V2
Wire Wire Line
	2000 1450 2000 1550
Wire Wire Line
	2000 1750 2600 1750
Wire Wire Line
	2600 1650 2000 1650
Connection ~ 2000 1650
Wire Wire Line
	2000 1650 2000 1750
Wire Wire Line
	2600 1550 2000 1550
Connection ~ 2000 1550
Wire Wire Line
	2000 1550 2000 1650
Wire Wire Line
	2000 1450 2600 1450
$Comp
L power:GND #PWR?
U 1 1 5E3DC1EC
P 3750 2250
F 0 "#PWR?" H 3750 2000 50  0001 C CNN
F 1 "GND" H 3755 2077 50  0000 C CNN
F 2 "" H 3750 2250 50  0001 C CNN
F 3 "" H 3750 2250 50  0001 C CNN
	1    3750 2250
	1    0    0    -1  
$EndComp
Wire Wire Line
	3750 1450 3550 1450
Wire Wire Line
	3550 1550 3750 1550
Connection ~ 3750 1550
Wire Wire Line
	3750 1550 3750 1450
Wire Wire Line
	3550 1650 3750 1650
Wire Wire Line
	3750 1550 3750 1650
Connection ~ 3750 1650
Wire Wire Line
	3750 1650 3750 1750
Wire Wire Line
	3550 1750 3750 1750
Connection ~ 3750 1750
Wire Wire Line
	3750 1750 3750 1850
Wire Wire Line
	3550 1850 3750 1850
Connection ~ 3750 1850
Wire Wire Line
	3750 1850 3750 1950
Wire Wire Line
	3550 1950 3750 1950
Connection ~ 3750 1950
Wire Wire Line
	3750 1950 3750 2050
Wire Wire Line
	3550 2050 3750 2050
Connection ~ 3750 2050
Wire Wire Line
	3750 2050 3750 2250
Text HLabel 1650 3650 0    50   Input ~ 0
VCC1V8
Wire Wire Line
	1650 3650 1750 3650
Wire Wire Line
	1750 3650 1750 3750
Wire Wire Line
	1750 3750 2300 3750
Connection ~ 1750 3650
Wire Wire Line
	1750 3650 2300 3650
Text HLabel 1600 6050 0    50   Input ~ 0
VCC1V8
Wire Wire Line
	1600 6050 1800 6050
Wire Wire Line
	1800 6050 1800 6150
Wire Wire Line
	1800 6150 2350 6150
Connection ~ 1800 6050
Wire Wire Line
	1800 6050 2350 6050
Text HLabel 5600 3650 0    50   Input ~ 0
2V5
Wire Wire Line
	5600 3650 5750 3650
Wire Wire Line
	6050 3750 5750 3750
Wire Wire Line
	5750 3750 5750 3650
Connection ~ 5750 3650
Wire Wire Line
	5750 3650 6050 3650
Text HLabel 8400 3300 0    50   Input ~ 0
VCC2V5
Wire Wire Line
	8800 3750 8550 3750
Wire Wire Line
	8550 3750 8550 3650
Wire Wire Line
	8550 3650 8800 3650
Text HLabel 2000 7050 0    50   Input ~ 0
GBTX_KEY_A_P
Text HLabel 2000 7150 0    50   Input ~ 0
GBTX_KEY_A_N
Text HLabel 2000 7250 0    50   Input ~ 0
GBTX_KEY_B_P
Text HLabel 2000 7350 0    50   Input ~ 0
GBTX_KEY_B_N
Wire Wire Line
	2000 7050 2350 7050
Wire Wire Line
	2350 7150 2000 7150
NoConn ~ 6050 3850
NoConn ~ 6050 3950
NoConn ~ 6050 4050
NoConn ~ 6050 4150
NoConn ~ 6050 4250
NoConn ~ 6050 4350
NoConn ~ 6050 4450
NoConn ~ 6050 4550
NoConn ~ 6050 4650
NoConn ~ 6050 4750
NoConn ~ 6050 4850
NoConn ~ 6050 4950
NoConn ~ 6050 5050
NoConn ~ 6050 5150
NoConn ~ 7450 4650
NoConn ~ 7450 4550
NoConn ~ 7450 4450
NoConn ~ 7450 4350
NoConn ~ 7450 4250
NoConn ~ 7450 4150
NoConn ~ 7450 4050
NoConn ~ 7450 3950
NoConn ~ 7450 3850
NoConn ~ 7450 3750
NoConn ~ 7450 3650
NoConn ~ 8800 3850
NoConn ~ 8800 3950
NoConn ~ 8800 4050
NoConn ~ 8800 4150
NoConn ~ 8800 4250
NoConn ~ 8800 4350
NoConn ~ 8800 4450
NoConn ~ 8800 4550
NoConn ~ 8800 4650
NoConn ~ 8800 4750
NoConn ~ 10250 3650
NoConn ~ 10250 3750
NoConn ~ 10250 3850
NoConn ~ 10250 3950
NoConn ~ 10250 4050
NoConn ~ 10250 4150
$Comp
L Device:R_Small R?
U 1 1 5DD25F46
P 10650 4050
F 0 "R?" H 10709 4096 50  0000 L CNN
F 1 "4k7" H 10709 4005 50  0000 L CNN
F 2 "" H 10650 4050 50  0001 C CNN
F 3 "~" H 10650 4050 50  0001 C CNN
	1    10650 4050
	1    0    0    -1  
$EndComp
$Comp
L Device:R_Small R?
U 1 1 5DD14B00
P 10400 3750
F 0 "R?" H 10459 3796 50  0000 L CNN
F 1 "4k7" H 10459 3705 50  0000 L CNN
F 2 "" H 10400 3750 50  0001 C CNN
F 3 "~" H 10400 3750 50  0001 C CNN
	1    10400 3750
	1    0    0    -1  
$EndComp
Wire Wire Line
	10250 4550 10650 4550
Wire Wire Line
	10650 4550 10650 4150
Wire Wire Line
	10400 3850 10400 4450
Wire Wire Line
	10400 4450 10250 4450
NoConn ~ 10250 4250
NoConn ~ 10250 4350
NoConn ~ 3900 3650
NoConn ~ 3900 3750
NoConn ~ 3900 3850
NoConn ~ 3900 3950
NoConn ~ 3900 4050
NoConn ~ 3900 4150
NoConn ~ 3900 4250
NoConn ~ 3900 4350
NoConn ~ 3900 4450
NoConn ~ 3900 4550
NoConn ~ 3900 4650
NoConn ~ 2300 4850
NoConn ~ 2300 5050
NoConn ~ 2300 4950
NoConn ~ 2350 7450
NoConn ~ 3850 6050
Wire Wire Line
	10650 3300 10650 3950
Wire Wire Line
	10400 3650 10400 3300
Connection ~ 10400 3300
Wire Wire Line
	10400 3300 10650 3300
Wire Wire Line
	8550 3650 8550 3300
Wire Wire Line
	8400 3300 8550 3300
Connection ~ 8550 3650
Connection ~ 8550 3300
Wire Wire Line
	8550 3300 10400 3300
Text Notes 800  750  0    129  ~ 0
iCE40
Text HLabel 1950 4650 0    50   Input ~ 0
GBTX_RXRDY
Wire Wire Line
	1950 4650 2300 4650
Text HLabel 1950 4750 0    50   Input ~ 0
GBTX_RXDATAVALID
Wire Wire Line
	1950 4750 2300 4750
Text Notes 2400 3250 0    50   ~ 0
1V8 Single Ended Output
Text Notes 2400 5650 0    50   ~ 0
2V5 Differential Input
Wire Wire Line
	2000 7250 2350 7250
Wire Wire Line
	2000 7350 2350 7350
NoConn ~ 3850 7050
NoConn ~ 3850 6950
$EndSCHEMATC
