EESchema Schematic File Version 4
LIBS:gbtx-testboard-cache
EELAYER 30 0
EELAYER END
$Descr A4 11693 8268
encoding utf-8
Sheet 7 9
Title ""
Date ""
Rev ""
Comp ""
Comment1 ""
Comment2 ""
Comment3 ""
Comment4 ""
$EndDescr
$Comp
L gbtx:iCE40LP1K U?
U 3 1 5DAD4912
P 3050 2950
F 0 "U?" H 2450 3550 50  0000 L CNN
F 1 "iCE40LP1K" H 2500 2750 50  0000 L CNN
F 2 "" H 4200 2950 50  0001 C CNN
F 3 "" H 4200 2950 50  0001 C CNN
	3    3050 2950
	1    0    0    -1  
$EndComp
$Comp
L gbtx:M25P10-AVMN6 U?
U 1 1 5DADAAF3
P 5400 2850
F 0 "U?" H 5300 2850 50  0000 C CNN
F 1 "M25P10-AVMN6" H 5500 1800 50  0000 C CNN
F 2 "" H 5400 2850 50  0001 C CNN
F 3 "" H 5400 2850 50  0001 C CNN
	1    5400 2850
	1    0    0    -1  
$EndComp
Text HLabel 1300 1950 0    50   Input ~ 0
3V3
Text HLabel 4600 4300 0    50   Input ~ 0
GND
$Comp
L gbtx:Header2 U?
U 1 1 5DAE4403
P 7750 1100
F 0 "U?" H 7700 1150 50  0000 L CNN
F 1 "Header2" H 7750 850 50  0000 L CNN
F 2 "" H 7750 1100 50  0001 C CNN
F 3 "" H 7750 1100 50  0001 C CNN
	1    7750 1100
	1    0    0    -1  
$EndComp
Text Label 4000 2550 2    50   ~ 0
iCE40_SO
Text Label 1550 2700 0    50   ~ 0
iCE40_SCK
Text Label 1550 2850 0    50   ~ 0
iCE40_SS
$Comp
L Device:C_Small C?
U 1 1 5DAED298
P 1700 2050
F 0 "C?" H 1792 2096 50  0000 L CNN
F 1 "1u" H 1792 2005 50  0000 L CNN
F 2 "" H 1700 2050 50  0001 C CNN
F 3 "~" H 1700 2050 50  0001 C CNN
	1    1700 2050
	1    0    0    -1  
$EndComp
$Comp
L Device:C_Small C?
U 1 1 5DAED693
P 2050 2050
F 0 "C?" H 2142 2096 50  0000 L CNN
F 1 "10n" H 2142 2005 50  0000 L CNN
F 2 "" H 2050 2050 50  0001 C CNN
F 3 "~" H 2050 2050 50  0001 C CNN
	1    2050 2050
	1    0    0    -1  
$EndComp
Wire Wire Line
	1700 1950 2050 1950
Connection ~ 2050 1950
Wire Wire Line
	1700 2150 2050 2150
$Comp
L gbtx:Header6 U?
U 1 1 5DAD6AD3
P 7850 3050
F 0 "U?" H 7750 3150 50  0000 L CNN
F 1 "Header6" H 7750 2350 50  0000 L CNN
F 2 "" H 7850 3050 50  0001 C CNN
F 3 "" H 7850 3050 50  0001 C CNN
	1    7850 3050
	1    0    0    -1  
$EndComp
Connection ~ 4450 1950
$Comp
L Device:C_Small C?
U 1 1 5DAEDB43
P 4450 2050
F 0 "C?" H 4542 2096 50  0000 L CNN
F 1 "10n" H 4542 2005 50  0000 L CNN
F 2 "" H 4450 2050 50  0001 C CNN
F 3 "~" H 4450 2050 50  0001 C CNN
	1    4450 2050
	1    0    0    -1  
$EndComp
Wire Wire Line
	4050 1950 4450 1950
Wire Wire Line
	2050 1950 2300 1950
$Comp
L Device:C_Small C?
U 1 1 5DAED8F7
P 4050 2050
F 0 "C?" H 4142 2096 50  0000 L CNN
F 1 "1u" H 4142 2005 50  0000 L CNN
F 2 "" H 4050 2050 50  0001 C CNN
F 3 "~" H 4050 2050 50  0001 C CNN
	1    4050 2050
	1    0    0    -1  
$EndComp
Wire Wire Line
	5050 3000 5150 3000
Wire Wire Line
	2350 2700 1550 2700
Wire Wire Line
	1550 2850 2350 2850
Text Label 6300 3000 2    50   ~ 0
iCE40_SI
Wire Wire Line
	3600 2550 4000 2550
Wire Wire Line
	5850 3000 6300 3000
Text Label 1550 2550 0    50   ~ 0
iCE40_SI
Wire Wire Line
	1550 2550 2350 2550
Wire Wire Line
	7300 3100 7650 3100
Connection ~ 2050 2150
Wire Wire Line
	4050 2150 4450 2150
Text Label 3950 3150 0    50   ~ 0
iCE40_SO
Text Label 7150 3300 0    50   ~ 0
iCE40_SO
Wire Wire Line
	7150 3300 7650 3300
Wire Wire Line
	4600 4300 5000 4300
Wire Wire Line
	5150 3750 5000 3750
Wire Wire Line
	5000 3750 5000 4300
Text Label 3950 3300 0    50   ~ 0
iCE40_SCK
Text Label 7150 3500 0    50   ~ 0
iCE40_SCK
Wire Wire Line
	7150 3500 7650 3500
Text Label 7100 1150 0    50   ~ 0
iCE40_SS
Wire Wire Line
	7100 1150 7600 1150
Text Label 3950 3600 0    50   ~ 0
M25P10-SS
Text Label 7100 1250 0    50   ~ 0
M25P10-SS
Wire Wire Line
	7100 1250 7600 1250
Text Label 7150 3200 0    50   ~ 0
iCE40_SS
Wire Wire Line
	7150 3200 7650 3200
Text Label 7150 3400 0    50   ~ 0
iCE40_SI
Wire Wire Line
	7650 3400 7150 3400
$Comp
L Device:R_Small R?
U 1 1 5DAD1FD7
P 4500 2700
F 0 "R?" H 4559 2746 50  0000 L CNN
F 1 "10K" H 4559 2655 50  0000 L CNN
F 2 "" H 4500 2700 50  0001 C CNN
F 3 "~" H 4500 2700 50  0001 C CNN
	1    4500 2700
	1    0    0    -1  
$EndComp
$Comp
L Device:R_Small R?
U 1 1 5DAD2749
P 4750 2700
F 0 "R?" H 4809 2746 50  0000 L CNN
F 1 "10K" H 4809 2655 50  0000 L CNN
F 2 "" H 4750 2700 50  0001 C CNN
F 3 "~" H 4750 2700 50  0001 C CNN
	1    4750 2700
	1    0    0    -1  
$EndComp
$Comp
L Device:R_Small R?
U 1 1 5DAD2B17
P 6400 2700
F 0 "R?" H 6459 2746 50  0000 L CNN
F 1 "10K" H 6459 2655 50  0000 L CNN
F 2 "" H 6400 2700 50  0001 C CNN
F 3 "~" H 6400 2700 50  0001 C CNN
	1    6400 2700
	1    0    0    -1  
$EndComp
Wire Wire Line
	7300 1950 7300 3100
Wire Wire Line
	4450 1950 5050 1950
Wire Wire Line
	4450 2150 5000 2150
Wire Wire Line
	5000 2150 5000 3750
Connection ~ 4450 2150
Connection ~ 5000 3750
Wire Wire Line
	5050 3000 5050 2350
Connection ~ 5050 1950
Wire Wire Line
	5050 1950 7300 1950
Wire Wire Line
	3950 3150 5150 3150
Wire Wire Line
	3950 3300 5150 3300
Wire Wire Line
	3950 3600 4500 3600
Wire Wire Line
	4500 2800 4500 3600
Connection ~ 4500 3600
Wire Wire Line
	4500 3600 5150 3600
Wire Wire Line
	4500 2600 4500 2350
Wire Wire Line
	4500 2350 4750 2350
Connection ~ 5050 2350
Wire Wire Line
	5050 2350 5050 1950
Wire Wire Line
	4750 3450 5150 3450
Wire Wire Line
	4750 2800 4750 3450
Wire Wire Line
	4750 2600 4750 2350
Connection ~ 4750 2350
Wire Wire Line
	4750 2350 5050 2350
Wire Wire Line
	5050 2350 6400 2350
Wire Wire Line
	6400 2350 6400 2600
Wire Wire Line
	6400 2800 6400 3150
Wire Wire Line
	6400 3150 5850 3150
Text Notes 7100 1000 0    50   ~ 0
PROM / Header Switch
Wire Wire Line
	7650 3600 7300 3600
Wire Wire Line
	7300 3600 7300 4300
Wire Wire Line
	7300 4300 5000 4300
Connection ~ 5000 4300
Wire Wire Line
	2350 3000 2300 3000
Wire Wire Line
	2300 3000 2300 1950
Connection ~ 2300 1950
Wire Wire Line
	2300 1950 4050 1950
Connection ~ 4050 1950
Wire Wire Line
	2050 2150 4050 2150
Connection ~ 4050 2150
Wire Wire Line
	1300 1950 1700 1950
Connection ~ 1700 1950
Text Notes 850  800  0    129  ~ 0
iCE40 SPI and PROM
$EndSCHEMATC
