EESchema Schematic File Version 4
LIBS:gbtx-testboard-cache
EELAYER 30 0
EELAYER END
$Descr A4 11693 8268
encoding utf-8
Sheet 6 9
Title ""
Date ""
Rev ""
Comp ""
Comment1 ""
Comment2 ""
Comment3 ""
Comment4 ""
$EndDescr
$Comp
L Device:C_Small C?
U 1 1 5D9F6FD3
P 5550 1600
F 0 "C?" H 5642 1646 50  0000 L CNN
F 1 "4.7u" H 5642 1555 50  0000 L CNN
F 2 "" H 5550 1600 50  0001 C CNN
F 3 "~" H 5550 1600 50  0001 C CNN
	1    5550 1600
	1    0    0    -1  
$EndComp
$Comp
L Device:R_Small R?
U 1 1 5DA084A5
P 5150 1650
F 0 "R?" H 5209 1696 50  0000 L CNN
F 1 "66k5" H 5209 1605 50  0000 L CNN
F 2 "" H 5150 1650 50  0001 C CNN
F 3 "~" H 5150 1650 50  0001 C CNN
	1    5150 1650
	1    0    0    -1  
$EndComp
$Comp
L Device:C_Small C?
U 1 1 5DA0F8B6
P 3850 1600
F 0 "C?" H 3942 1646 50  0000 L CNN
F 1 "1u" H 3942 1555 50  0000 L CNN
F 2 "" H 3850 1600 50  0001 C CNN
F 3 "~" H 3850 1600 50  0001 C CNN
	1    3850 1600
	1    0    0    -1  
$EndComp
$Comp
L gbtx:TPS76201 T?
U 1 1 5DA24022
P 4600 1150
F 0 "T?" H 4625 1515 50  0000 C CNN
F 1 "TPS76201" H 4625 1424 50  0000 C CNN
F 2 "" H 4850 1150 50  0001 C CNN
F 3 "" H 4850 1150 50  0001 C CNN
	1    4600 1150
	1    0    0    -1  
$EndComp
Wire Wire Line
	4950 1450 5150 1450
Wire Wire Line
	4150 1800 5150 1800
Wire Wire Line
	5150 1800 5150 1750
Wire Wire Line
	5150 1800 5550 1800
Connection ~ 5150 1800
Wire Wire Line
	4300 1300 4150 1300
Wire Wire Line
	4150 1300 4150 1450
Wire Wire Line
	4300 1450 4150 1450
Wire Wire Line
	5150 1550 5150 1450
Wire Wire Line
	4150 1450 4150 1800
Connection ~ 4150 1450
Wire Wire Line
	5550 1700 5550 1800
Wire Wire Line
	5550 1500 5550 1050
Wire Wire Line
	4950 1050 5150 1050
Wire Wire Line
	5150 1150 5150 1050
Connection ~ 5150 1050
Wire Wire Line
	5150 1050 5550 1050
Wire Wire Line
	5150 1350 5150 1450
Connection ~ 5150 1450
Wire Wire Line
	3850 1050 4300 1050
Wire Wire Line
	4150 1800 3850 1800
Connection ~ 4150 1800
Wire Wire Line
	3850 1700 3850 1800
Wire Wire Line
	3850 1500 3850 1050
$Comp
L Device:R_Small R?
U 1 1 5DA07866
P 5150 1250
F 0 "R?" H 5209 1296 50  0000 L CNN
F 1 "246k" H 5209 1205 50  0000 L CNN
F 2 "" H 5150 1250 50  0001 C CNN
F 3 "~" H 5150 1250 50  0001 C CNN
	1    5150 1250
	1    0    0    -1  
$EndComp
$Comp
L Device:C_Small C?
U 1 1 5DA50EF6
P 5550 2800
F 0 "C?" H 5642 2846 50  0000 L CNN
F 1 "4.7u" H 5642 2755 50  0000 L CNN
F 2 "" H 5550 2800 50  0001 C CNN
F 3 "~" H 5550 2800 50  0001 C CNN
	1    5550 2800
	1    0    0    -1  
$EndComp
$Comp
L Device:R_Small R?
U 1 1 5DA50F00
P 5150 2850
F 0 "R?" H 5209 2896 50  0000 L CNN
F 1 "66k5" H 5209 2805 50  0000 L CNN
F 2 "" H 5150 2850 50  0001 C CNN
F 3 "~" H 5150 2850 50  0001 C CNN
	1    5150 2850
	1    0    0    -1  
$EndComp
$Comp
L Device:C_Small C?
U 1 1 5DA50F14
P 3850 2800
F 0 "C?" H 3942 2846 50  0000 L CNN
F 1 "1u" H 3942 2755 50  0000 L CNN
F 2 "" H 3850 2800 50  0001 C CNN
F 3 "~" H 3850 2800 50  0001 C CNN
	1    3850 2800
	1    0    0    -1  
$EndComp
$Comp
L gbtx:TPS76201 T?
U 1 1 5DA50F20
P 4600 2350
F 0 "T?" H 4625 2715 50  0000 C CNN
F 1 "TPS76201" H 4625 2624 50  0000 C CNN
F 2 "" H 4850 2350 50  0001 C CNN
F 3 "" H 4850 2350 50  0001 C CNN
	1    4600 2350
	1    0    0    -1  
$EndComp
Wire Wire Line
	4950 2650 5150 2650
Wire Wire Line
	4150 3000 5150 3000
Wire Wire Line
	5150 3000 5150 2950
Wire Wire Line
	5150 3000 5550 3000
Connection ~ 5150 3000
Wire Wire Line
	4300 2500 4150 2500
Wire Wire Line
	4150 2500 4150 2650
Wire Wire Line
	4300 2650 4150 2650
Wire Wire Line
	5150 2750 5150 2650
Wire Wire Line
	4150 2650 4150 3000
Connection ~ 4150 2650
Wire Wire Line
	5550 2900 5550 3000
Wire Wire Line
	5550 2700 5550 2250
Wire Wire Line
	4950 2250 5150 2250
Wire Wire Line
	5150 2350 5150 2250
Connection ~ 5150 2250
Wire Wire Line
	5150 2250 5550 2250
Wire Wire Line
	5150 2550 5150 2650
Connection ~ 5150 2650
Wire Wire Line
	3850 2250 4300 2250
Wire Wire Line
	4150 3000 3850 3000
Connection ~ 4150 3000
Wire Wire Line
	3850 2900 3850 3000
Wire Wire Line
	3850 2700 3850 2250
$Comp
L Device:R_Small R?
U 1 1 5DA50F43
P 5150 2450
F 0 "R?" H 5209 2496 50  0000 L CNN
F 1 "182k" H 5209 2405 50  0000 L CNN
F 2 "" H 5150 2450 50  0001 C CNN
F 3 "~" H 5150 2450 50  0001 C CNN
	1    5150 2450
	1    0    0    -1  
$EndComp
$Comp
L Device:C_Small C?
U 1 1 5DA54E51
P 5550 4200
F 0 "C?" H 5642 4246 50  0000 L CNN
F 1 "4.7u" H 5642 4155 50  0000 L CNN
F 2 "" H 5550 4200 50  0001 C CNN
F 3 "~" H 5550 4200 50  0001 C CNN
	1    5550 4200
	1    0    0    -1  
$EndComp
$Comp
L Device:R_Small R?
U 1 1 5DA54E5B
P 5150 4250
F 0 "R?" H 5209 4296 50  0000 L CNN
F 1 "66k5" H 5209 4205 50  0000 L CNN
F 2 "" H 5150 4250 50  0001 C CNN
F 3 "~" H 5150 4250 50  0001 C CNN
	1    5150 4250
	1    0    0    -1  
$EndComp
$Comp
L Device:C_Small C?
U 1 1 5DA54E6F
P 3850 4200
F 0 "C?" H 3942 4246 50  0000 L CNN
F 1 "1u" H 3942 4155 50  0000 L CNN
F 2 "" H 3850 4200 50  0001 C CNN
F 3 "~" H 3850 4200 50  0001 C CNN
	1    3850 4200
	1    0    0    -1  
$EndComp
$Comp
L gbtx:TPS76201 T?
U 1 1 5DA54E7B
P 4600 3750
F 0 "T?" H 4625 4115 50  0000 C CNN
F 1 "TPS76201" H 4625 4024 50  0000 C CNN
F 2 "" H 4850 3750 50  0001 C CNN
F 3 "" H 4850 3750 50  0001 C CNN
	1    4600 3750
	1    0    0    -1  
$EndComp
Wire Wire Line
	4950 4050 5150 4050
Wire Wire Line
	4150 4400 5150 4400
Wire Wire Line
	5150 4400 5150 4350
Wire Wire Line
	5150 4400 5550 4400
Connection ~ 5150 4400
Wire Wire Line
	4300 3900 4150 3900
Wire Wire Line
	4150 3900 4150 4050
Wire Wire Line
	4300 4050 4150 4050
Wire Wire Line
	5150 4150 5150 4050
Wire Wire Line
	4150 4050 4150 4400
Connection ~ 4150 4050
Wire Wire Line
	5550 4300 5550 4400
Wire Wire Line
	5550 4100 5550 3650
Wire Wire Line
	4950 3650 5150 3650
Wire Wire Line
	5150 3750 5150 3650
Connection ~ 5150 3650
Wire Wire Line
	5150 3650 5550 3650
Wire Wire Line
	5150 3950 5150 4050
Connection ~ 5150 4050
Wire Wire Line
	3850 3650 4300 3650
Wire Wire Line
	4150 4400 3850 4400
Connection ~ 4150 4400
Wire Wire Line
	3850 4300 3850 4400
Wire Wire Line
	3850 4100 3850 3650
$Comp
L Device:R_Small R?
U 1 1 5DA54E9E
P 5150 3850
F 0 "R?" H 5209 3896 50  0000 L CNN
F 1 "113K" H 5209 3805 50  0000 L CNN
F 2 "" H 5150 3850 50  0001 C CNN
F 3 "~" H 5150 3850 50  0001 C CNN
	1    5150 3850
	1    0    0    -1  
$EndComp
$Comp
L Device:C_Small C?
U 1 1 5DA54EA8
P 5550 5550
F 0 "C?" H 5642 5596 50  0000 L CNN
F 1 "4.7u" H 5642 5505 50  0000 L CNN
F 2 "" H 5550 5550 50  0001 C CNN
F 3 "~" H 5550 5550 50  0001 C CNN
	1    5550 5550
	1    0    0    -1  
$EndComp
$Comp
L Device:R_Small R?
U 1 1 5DA54EB2
P 5150 5600
F 0 "R?" H 5209 5646 50  0000 L CNN
F 1 "66k5" H 5209 5555 50  0000 L CNN
F 2 "" H 5150 5600 50  0001 C CNN
F 3 "~" H 5150 5600 50  0001 C CNN
	1    5150 5600
	1    0    0    -1  
$EndComp
$Comp
L Device:C_Small C?
U 1 1 5DA54EC6
P 3850 5550
F 0 "C?" H 3942 5596 50  0000 L CNN
F 1 "1u" H 3942 5505 50  0000 L CNN
F 2 "" H 3850 5550 50  0001 C CNN
F 3 "~" H 3850 5550 50  0001 C CNN
	1    3850 5550
	1    0    0    -1  
$EndComp
$Comp
L gbtx:TPS76201 T?
U 1 1 5DA54ED2
P 4600 5100
F 0 "T?" H 4625 5465 50  0000 C CNN
F 1 "TPS76201" H 4625 5374 50  0000 C CNN
F 2 "" H 4850 5100 50  0001 C CNN
F 3 "" H 4850 5100 50  0001 C CNN
	1    4600 5100
	1    0    0    -1  
$EndComp
Wire Wire Line
	4950 5400 5150 5400
Wire Wire Line
	4150 5750 5150 5750
Wire Wire Line
	5150 5750 5150 5700
Wire Wire Line
	5150 5750 5550 5750
Connection ~ 5150 5750
Wire Wire Line
	4300 5250 4150 5250
Wire Wire Line
	4150 5250 4150 5400
Wire Wire Line
	4300 5400 4150 5400
Wire Wire Line
	5150 5500 5150 5400
Wire Wire Line
	4150 5400 4150 5750
Connection ~ 4150 5400
Wire Wire Line
	5550 5650 5550 5750
Wire Wire Line
	5550 5450 5550 5000
Wire Wire Line
	4950 5000 5150 5000
Wire Wire Line
	5150 5100 5150 5000
Connection ~ 5150 5000
Wire Wire Line
	5150 5000 5550 5000
Wire Wire Line
	5150 5300 5150 5400
Connection ~ 5150 5400
Wire Wire Line
	3850 5000 4300 5000
Wire Wire Line
	4150 5750 3850 5750
Connection ~ 4150 5750
Wire Wire Line
	3850 5650 3850 5750
Wire Wire Line
	3850 5450 3850 5000
$Comp
L Device:R_Small R?
U 1 1 5DA54EF5
P 5150 5200
F 0 "R?" H 5209 5246 50  0000 L CNN
F 1 "83k5" H 5209 5155 50  0000 L CNN
F 2 "" H 5150 5200 50  0001 C CNN
F 3 "~" H 5150 5200 50  0001 C CNN
	1    5150 5200
	1    0    0    -1  
$EndComp
$Comp
L Device:C_Small C?
U 1 1 5DA5DDB5
P 5550 6850
F 0 "C?" H 5642 6896 50  0000 L CNN
F 1 "4.7u" H 5642 6805 50  0000 L CNN
F 2 "" H 5550 6850 50  0001 C CNN
F 3 "~" H 5550 6850 50  0001 C CNN
	1    5550 6850
	1    0    0    -1  
$EndComp
$Comp
L Device:R_Small R?
U 1 1 5DA5DDBF
P 5150 6900
F 0 "R?" H 5209 6946 50  0000 L CNN
F 1 "66k5" H 5209 6855 50  0000 L CNN
F 2 "" H 5150 6900 50  0001 C CNN
F 3 "~" H 5150 6900 50  0001 C CNN
	1    5150 6900
	1    0    0    -1  
$EndComp
$Comp
L Device:C_Small C?
U 1 1 5DA5DDD3
P 3850 6850
F 0 "C?" H 3942 6896 50  0000 L CNN
F 1 "1u" H 3942 6805 50  0000 L CNN
F 2 "" H 3850 6850 50  0001 C CNN
F 3 "~" H 3850 6850 50  0001 C CNN
	1    3850 6850
	1    0    0    -1  
$EndComp
$Comp
L gbtx:TPS76201 T?
U 1 1 5DA5DDDF
P 4600 6400
F 0 "T?" H 4625 6765 50  0000 C CNN
F 1 "TPS76201" H 4625 6674 50  0000 C CNN
F 2 "" H 4850 6400 50  0001 C CNN
F 3 "" H 4850 6400 50  0001 C CNN
	1    4600 6400
	1    0    0    -1  
$EndComp
Wire Wire Line
	4950 6700 5150 6700
Wire Wire Line
	4150 7050 5150 7050
Wire Wire Line
	5150 7050 5150 7000
Wire Wire Line
	5150 7050 5550 7050
Connection ~ 5150 7050
Wire Wire Line
	4300 6550 4150 6550
Wire Wire Line
	4150 6550 4150 6700
Wire Wire Line
	4300 6700 4150 6700
Wire Wire Line
	5150 6800 5150 6700
Wire Wire Line
	4150 6700 4150 7050
Connection ~ 4150 6700
Wire Wire Line
	5550 6950 5550 7050
Wire Wire Line
	5550 6750 5550 6300
Wire Wire Line
	4950 6300 5150 6300
Wire Wire Line
	5150 6400 5150 6300
Connection ~ 5150 6300
Wire Wire Line
	5150 6300 5550 6300
Wire Wire Line
	5150 6600 5150 6700
Connection ~ 5150 6700
Wire Wire Line
	3850 6300 4300 6300
Wire Wire Line
	4150 7050 3850 7050
Connection ~ 4150 7050
Wire Wire Line
	3850 6950 3850 7050
Wire Wire Line
	3850 6750 3850 6300
$Comp
L Device:R_Small R?
U 1 1 5DA5DE02
P 5150 6500
F 0 "R?" H 5209 6546 50  0000 L CNN
F 1 "53k6" H 5209 6455 50  0000 L CNN
F 2 "" H 5150 6500 50  0001 C CNN
F 3 "~" H 5150 6500 50  0001 C CNN
	1    5150 6500
	1    0    0    -1  
$EndComp
Text HLabel 3850 1050 0    50   Input ~ 0
9V
Text HLabel 3850 2250 0    50   Input ~ 0
9V
Text HLabel 3850 3650 0    50   Input ~ 0
9V
Text HLabel 3850 5000 0    50   Input ~ 0
9V
Text HLabel 3850 6300 0    50   Input ~ 0
9V
Text HLabel 5550 1050 2    50   Output ~ 0
3V3
Text HLabel 5550 2250 2    50   Output ~ 0
2V5
Text HLabel 5550 3650 2    50   Output ~ 0
1V8
Text HLabel 5550 5000 2    50   Output ~ 0
1V5
Text HLabel 5550 6300 2    50   Output ~ 0
1V2
Text HLabel 3850 1800 0    50   Input ~ 0
GND
Text HLabel 3850 3000 0    50   Input ~ 0
GND
Text HLabel 3850 4400 0    50   Input ~ 0
GND
Text HLabel 3850 5750 0    50   Input ~ 0
GND
Text HLabel 3850 7050 0    50   Input ~ 0
GND
Text Notes 750  800  0    129  ~ 0
Power Regulators
$EndSCHEMATC
